\relax 
\providecommand\hyper@newdestlabel[2]{}
\providecommand*\new@tpo@label[2]{}
\providecommand\babel@aux[2]{}
\@nameuse{bbl@beforestart}
\catcode `"\active 
\catcode `-\active 
\providecommand\HyperFirstAtBeginDocument{\AtBeginDocument}
\HyperFirstAtBeginDocument{\ifx\hyper@anchor\@undefined
\global\let\oldcontentsline\contentsline
\gdef\contentsline#1#2#3#4{\oldcontentsline{#1}{#2}{#3}}
\global\let\oldnewlabel\newlabel
\gdef\newlabel#1#2{\newlabelxx{#1}#2}
\gdef\newlabelxx#1#2#3#4#5#6{\oldnewlabel{#1}{{#2}{#3}}}
\AtEndDocument{\ifx\hyper@anchor\@undefined
\let\contentsline\oldcontentsline
\let\newlabel\oldnewlabel
\fi}
\fi}
\global\let\hyper@last\relax 
\gdef\HyperFirstAtBeginDocument#1{#1}
\providecommand\HyField@AuxAddToFields[1]{}
\providecommand\HyField@AuxAddToCoFields[2]{}
\providecommand\BKM@entry[2]{}
\bibstyle{plain}
\BKM@entry{id=1,dest={73656374696F6E2E31},srcline={33}}{5C3337365C3337375C3030305C3333325C303030765C3030306F5C30303064}
\BKM@entry{id=2,dest={73656374696F6E2E32},srcline={38}}{5C3337365C3337375C303030565C303030735C303030745C303030755C303030705C3030306E5C3030305C3335355C3030305C3034305C303030645C303030615C303030745C30303061}
\BKM@entry{id=3,dest={73656374696F6E2E33},srcline={70}}{5C3337365C3337375C3030304D5C303030655C303030745C3030306F5C303030645C30303079}
\citation{xgboost}
\citation{tabnet}
\babel@aux{czech}{}
\@writefile{toc}{\contentsline {section}{\numberline {1}Úvod}{1}{section.1}\protected@file@percent }
\@writefile{toc}{\contentsline {section}{\numberline {2}Vstupní data}{1}{section.2}\protected@file@percent }
\@writefile{lot}{\contentsline {table}{\numberline {1}{\ignorespaces Vybrané vstupní proměnné pro regresi.}}{1}{table.1}\protected@file@percent }
\@writefile{lof}{\contentsline {figure}{\numberline {1}{\ignorespaces Fotografie paprsku s jeho obrysem.}}{1}{figure.1}\protected@file@percent }
\newlabel{fig:mask}{{1}{1}{Fotografie paprsku s jeho obrysem}{figure.1}{}}
\@writefile{toc}{\contentsline {section}{\numberline {3}Metody}{1}{section.3}\protected@file@percent }
\BKM@entry{id=4,dest={73656374696F6E2E34},srcline={109}}{5C3337365C3337375C303030565C3030305C3337355C303030735C3030306C5C303030655C303030645C3030306B5C30303079}
\@writefile{lof}{\contentsline {figure}{\numberline {2}{\ignorespaces Architektura vlastní sítě. }}{2}{figure.2}\protected@file@percent }
\newlabel{fig:network}{{2}{2}{Architektura vlastní sítě}{figure.2}{}}
\@writefile{lot}{\contentsline {table}{\numberline {2}{\ignorespaces RMSE odděleně pro jednotlivé odhadované proměnné a metody regrese. V posledním řádku je RMSE na standardizovaných datech přes všechny predikované proměnné.}}{2}{table.2}\protected@file@percent }
\newlabel{fig:val_res}{{2}{2}{RMSE odděleně pro jednotlivé odhadované proměnné a metody regrese. V posledním řádku je RMSE na standardizovaných datech přes všechny predikované proměnné}{table.2}{}}
\@writefile{toc}{\contentsline {section}{\numberline {4}Výsledky}{2}{section.4}\protected@file@percent }
\@writefile{lot}{\contentsline {table}{\numberline {3}{\ignorespaces Vyhodnocení na testovacích datech. První čtyři atributy jsou predikovány XGBoostem a poslední čtyři TabNetem.}}{2}{table.3}\protected@file@percent }
\newlabel{fig:test}{{3}{2}{Vyhodnocení na testovacích datech. První čtyři atributy jsou predikovány XGBoostem a poslední čtyři TabNetem}{table.3}{}}
\BKM@entry{id=5,dest={73656374696F6E2E35},srcline={329}}{5C3337365C3337375C3030305A5C3030305C3334315C303030765C3030315C3033335C30303072}
\bibdata{reference}
\bibcite{tabnet}{{1}{}{{}}{{}}}
\bibcite{xgboost}{{2}{}{{}}{{}}}
\providecommand\NAT@force@numbers{}\NAT@force@numbers
\@writefile{lof}{\contentsline {figure}{\numberline {3}{\ignorespaces Významnost atributů pro predikci XGBoostem.}}{3}{figure.3}\protected@file@percent }
\newlabel{fig:xgb_imp}{{3}{3}{Významnost atributů pro predikci XGBoostem}{figure.3}{}}
\@writefile{toc}{\contentsline {section}{\numberline {5}Závěr}{3}{section.5}\protected@file@percent }
\@writefile{lof}{\contentsline {figure}{\numberline {4}{\ignorespaces Globální významnost atributů pro regresi TabNetem.}}{3}{figure.4}\protected@file@percent }
\newlabel{fig:tabnet_imp}{{4}{3}{Globální významnost atributů pro regresi TabNetem}{figure.4}{}}
\gdef \@abspage@last{3}
